power_v3.vcd
$date
	Thu May 28 23:00:50 2026
$end
$version
	Icarus Verilog
$end
$timescale
	1ps
$end
$scope module tb_power_v3 $end
$var wire 1 ! result_valid $end
$var wire 8 " mem_wakeup_latency [7:0] $end
$var wire 8 # mem_transitions [7:0] $end
$var wire 2 $ mem_state [1:0] $end
$var wire 8 % mem_retained_regs [7:0] $end
$var wire 32 & mem_out [31:0] $end
$var wire 1 ' mem_active $end
$var wire 32 ( mac_result [31:0] $end
$var wire 1 ) inrush_safe $end
$var wire 8 * dsp_wakeup_latency [7:0] $end
$var wire 8 + dsp_transitions [7:0] $end
$var wire 2 , dsp_state [1:0] $end
$var wire 8 - dsp_retained_regs [7:0] $end
$var wire 1 . dsp_restore_success $end
$var wire 1 / dsp_active $end
$var wire 1 0 buffer_full $end
$var wire 1 1 any_active $end
$var reg 1 2 clk $end
$var reg 16 3 data_a [15:0] $end
$var reg 16 4 data_b [15:0] $end
$var reg 1 5 data_valid $end
$var reg 1 6 enable_dsp $end
$var reg 1 7 enable_mem $end
$var reg 1 8 rst $end
$var integer 32 9 corruption_free [31:0] $end
$var real 1 : dsp_active_time $end
$var real 1 ; dsp_enable_time $end
$var integer 32 < iso_cells_inserted [31:0] $end
$var integer 32 = iso_cells_required [31:0] $end
$var real 1 > leakage_reduction $end
$var integer 32 ? ls_inserted [31:0] $end
$var integer 32 @ ls_required [31:0] $end
$var real 1 A power_all_on $end
$var real 1 B power_gated $end
$var integer 32 C successful_transitions [31:0] $end
$var integer 32 D test_fail [31:0] $end
$var integer 32 E test_pass [31:0] $end
$var real 1 F wakeup_energy $end
$var real 1 G wakeup_latency_ns $end
$scope function dsp_iso_en_ok $end
$var reg 1 H dummy $end
$upscope $end
$scope function dsp_power_gate_on $end
$var reg 1 I dummy $end
$upscope $end
$scope function sname $end
$var reg 2 J s [1:0] $end
$upscope $end
$scope module uut $end
$var wire 1 2 clk $end
$var wire 16 K data_a [15:0] $end
$var wire 16 L data_b [15:0] $end
$var wire 1 5 data_valid $end
$var wire 1 6 enable_dsp $end
$var wire 1 7 enable_mem $end
$var wire 32 M mac_result [31:0] $end
$var wire 1 ! result_valid $end
$var wire 1 8 rst $end
$var wire 8 N mem_wakeup_latency [7:0] $end
$var wire 8 O mem_transitions [7:0] $end
$var wire 2 P mem_state [1:0] $end
$var wire 1 Q mem_save $end
$var wire 8 R mem_retained_regs [7:0] $end
$var wire 1 S mem_restore $end
$var wire 1 T mem_power_gate_n $end
$var wire 32 U mem_out [31:0] $end
$var wire 1 V mem_iso_en $end
$var wire 1 ' mem_active $end
$var wire 1 W ls_valid $end
$var wire 32 X ls_result [31:0] $end
$var wire 1 ) inrush_safe $end
$var wire 8 Y dsp_wakeup_latency [7:0] $end
$var wire 8 Z dsp_transitions [7:0] $end
$var wire 2 [ dsp_state [1:0] $end
$var wire 1 \ dsp_save $end
$var wire 8 ] dsp_retained_regs [7:0] $end
$var wire 1 . dsp_restore_success $end
$var wire 1 ^ dsp_restore $end
$var wire 1 _ dsp_raw_valid $end
$var wire 32 ` dsp_raw_result [31:0] $end
$var wire 1 a dsp_power_gate_n $end
$var wire 1 b dsp_iso_valid $end
$var wire 32 c dsp_iso_result [31:0] $end
$var wire 1 d dsp_iso_en $end
$var wire 1 / dsp_active $end
$var wire 1 0 buffer_full $end
$var wire 1 1 any_active $end
$scope module u_dsp $end
$var wire 1 2 clk $end
$var wire 16 e data_a [15:0] $end
$var wire 16 f data_b [15:0] $end
$var wire 1 g data_valid $end
$var wire 1 8 rst $end
$var wire 1 \ save $end
$var wire 1 ^ restore $end
$var wire 1 _ raw_valid $end
$var wire 32 h raw_result [31:0] $end
$var wire 1 d iso_en $end
$var wire 1 i domain_busy $end
$var reg 32 j accumulator [31:0] $end
$var reg 4 k op_count [3:0] $end
$var reg 32 l pre_sleep_result [31:0] $end
$var reg 1 m pre_sleep_valid $end
$var reg 1 . restore_success $end
$var reg 32 n result_reg [31:0] $end
$var reg 32 o ret_accumulator [31:0] $end
$var reg 4 p ret_op_count [3:0] $end
$var reg 32 q ret_result [31:0] $end
$var reg 8 r retained_reg_count [7:0] $end
$var reg 1 _ valid_reg $end
$upscope $end
$scope module u_iso_result $end
$var wire 32 s data_in [31:0] $end
$var wire 1 d iso_en $end
$var wire 32 t data_out [31:0] $end
$upscope $end
$scope module u_iso_valid $end
$var wire 1 _ data_in $end
$var wire 1 b data_out $end
$var wire 1 d iso_en $end
$upscope $end
$scope module u_ls_result $end
$var wire 32 u data_in [31:0] $end
$var wire 32 v data_out [31:0] $end
$scope begin LS[0] $end
$var parameter 2 w i $end
$scope module ls_bit $end
$var wire 1 x data_in $end
$var wire 1 y data_out $end
$upscope $end
$upscope $end
$scope begin LS[1] $end
$var parameter 2 z i $end
$scope module ls_bit $end
$var wire 1 { data_in $end
$var wire 1 | data_out $end
$upscope $end
$upscope $end
$scope begin LS[2] $end
$var parameter 3 } i $end
$scope module ls_bit $end
$var wire 1 ~ data_in $end
$var wire 1 !" data_out $end
$upscope $end
$upscope $end
$scope begin LS[3] $end
$var parameter 3 "" i $end
$scope module ls_bit $end
$var wire 1 #" data_in $end
$var wire 1 $" data_out $end
$upscope $end
$upscope $end
$scope begin LS[4] $end
$var parameter 4 %" i $end
$scope module ls_bit $end
$var wire 1 &" data_in $end
$var wire 1 '" data_out $end
$upscope $end
$upscope $end
$scope begin LS[5] $end
$var parameter 4 (" i $end
$scope module ls_bit $end
$var wire 1 )" data_in $end
$var wire 1 *" data_out $end
$upscope $end
$upscope $end
$scope begin LS[6] $end
$var parameter 4 +" i $end
$scope module ls_bit $end
$var wire 1 ," data_in $end
$var wire 1 -" data_out $end
$upscope $end
$upscope $end
$scope begin LS[7] $end
$var parameter 4 ." i $end
$scope module ls_bit $end
$var wire 1 /" data_in $end
$var wire 1 0" data_out $end
$upscope $end
$upscope $end
$scope begin LS[8] $end
$var parameter 5 1" i $end
$scope module ls_bit $end
$var wire 1 2" data_in $end
$var wire 1 3" data_out $end
$upscope $end
$upscope $end
$scope begin LS[9] $end
$var parameter 5 4" i $end
$scope module ls_bit $end
$var wire 1 5" data_in $end
$var wire 1 6" data_out $end
$upscope $end
$upscope $end
$scope begin LS[10] $end
$var parameter 5 7" i $end
$scope module ls_bit $end
$var wire 1 8" data_in $end
$var wire 1 9" data_out $end
$upscope $end
$upscope $end
$scope begin LS[11] $end
$var parameter 5 :" i $end
$scope module ls_bit $end
$var wire 1 ;" data_in $end
$var wire 1 <" data_out $end
$upscope $end
$upscope $end
$scope begin LS[12] $end
$var parameter 5 =" i $end
$scope module ls_bit $end
$var wire 1 >" data_in $end
$var wire 1 ?" data_out $end
$upscope $end
$upscope $end
$scope begin LS[13] $end
$var parameter 5 @" i $end
$scope module ls_bit $end
$var wire 1 A" data_in $end
$var wire 1 B" data_out $end
$upscope $end
$upscope $end
$scope begin LS[14] $end
$var parameter 5 C" i $end
$scope module ls_bit $end
$var wire 1 D" data_in $end
$var wire 1 E" data_out $end
$upscope $end
$upscope $end
$scope begin LS[15] $end
$var parameter 5 F" i $end
$scope module ls_bit $end
$var wire 1 G" data_in $end
$var wire 1 H" data_out $end
$upscope $end
$upscope $end
$scope begin LS[16] $end
$var parameter 6 I" i $end
$scope module ls_bit $end
$var wire 1 J" data_in $end
$var wire 1 K" data_out $end
$upscope $end
$upscope $end
$scope begin LS[17] $end
$var parameter 6 L" i $end
$scope module ls_bit $end
$var wire 1 M" data_in $end
$var wire 1 N" data_out $end
$upscope $end
$upscope $end
$scope begin LS[18] $end
$var parameter 6 O" i $end
$scope module ls_bit $end
$var wire 1 P" data_in $end
$var wire 1 Q" data_out $end
$upscope $end
$upscope $end
$scope begin LS[19] $end
$var parameter 6 R" i $end
$scope module ls_bit $end
$var wire 1 S" data_in $end
$var wire 1 T" data_out $end
$upscope $end
$upscope $end
$scope begin LS[20] $end
$var parameter 6 U" i $end
$scope module ls_bit $end
$var wire 1 V" data_in $end
$var wire 1 W" data_out $end
$upscope $end
$upscope $end
$scope begin LS[21] $end
$var parameter 6 X" i $end
$scope module ls_bit $end
$var wire 1 Y" data_in $end
$var wire 1 Z" data_out $end
$upscope $end
$upscope $end
$scope begin LS[22] $end
$var parameter 6 [" i $end
$scope module ls_bit $end
$var wire 1 \" data_in $end
$var wire 1 ]" data_out $end
$upscope $end
$upscope $end
$scope begin LS[23] $end
$var parameter 6 ^" i $end
$scope module ls_bit $end
$var wire 1 _" data_in $end
$var wire 1 `" data_out $end
$upscope $end
$upscope $end
$scope begin LS[24] $end
$var parameter 6 a" i $end
$scope module ls_bit $end
$var wire 1 b" data_in $end
$var wire 1 c" data_out $end
$upscope $end
$upscope $end
$scope begin LS[25] $end
$var parameter 6 d" i $end
$scope module ls_bit $end
$var wire 1 e" data_in $end
$var wire 1 f" data_out $end
$upscope $end
$upscope $end
$scope begin LS[26] $end
$var parameter 6 g" i $end
$scope module ls_bit $end
$var wire 1 h" data_in $end
$var wire 1 i" data_out $end
$upscope $end
$upscope $end
$scope begin LS[27] $end
$var parameter 6 j" i $end
$scope module ls_bit $end
$var wire 1 k" data_in $end
$var wire 1 l" data_out $end
$upscope $end
$upscope $end
$scope begin LS[28] $end
$var parameter 6 m" i $end
$scope module ls_bit $end
$var wire 1 n" data_in $end
$var wire 1 o" data_out $end
$upscope $end
$upscope $end
$scope begin LS[29] $end
$var parameter 6 p" i $end
$scope module ls_bit $end
$var wire 1 q" data_in $end
$var wire 1 r" data_out $end
$upscope $end
$upscope $end
$scope begin LS[30] $end
$var parameter 6 s" i $end
$scope module ls_bit $end
$var wire 1 t" data_in $end
$var wire 1 u" data_out $end
$upscope $end
$upscope $end
$scope begin LS[31] $end
$var parameter 6 v" i $end
$scope module ls_bit $end
$var wire 1 w" data_in $end
$var wire 1 x" data_out $end
$upscope $end
$upscope $end
$upscope $end
$scope module u_ls_valid $end
$var wire 1 b data_in $end
$var wire 1 W data_out $end
$upscope $end
$scope module u_mem $end
$var wire 1 2 clk $end
$var wire 32 y" data_in [31:0] $end
$var wire 1 z" data_valid $end
$var wire 1 8 rst $end
$var wire 1 Q save $end
$var wire 1 S restore $end
$var wire 32 {" mem_out [31:0] $end
$var wire 1 V iso_en $end
$var wire 4 |" fill_level [3:0] $end
$var wire 1 0 buffer_full $end
$var reg 1 }" full_reg $end
$var reg 4 ~" rd_ptr [3:0] $end
$var reg 4 !# ret_rd_ptr [3:0] $end
$var reg 4 "# ret_wr_ptr [3:0] $end
$var reg 8 ## retained_reg_count [7:0] $end
$var reg 4 $# wr_ptr [3:0] $end
$upscope $end
$scope module u_pm $end
$var wire 1 2 clk $end
$var wire 2 %# dsp_state [1:0] $end
$var wire 1 6 enable_dsp $end
$var wire 1 7 enable_mem $end
$var wire 2 &# mem_state [1:0] $end
$var wire 1 8 rst $end
$var parameter 2 '# OFF $end
$var parameter 2 (# ON $end
$var parameter 2 )# SLEEP $end
$var parameter 2 *# WAKE $end
$var reg 1 1 any_domain_active $end
$var reg 1 / dsp_active $end
$var reg 8 +# dsp_cnt [7:0] $end
$var reg 1 d dsp_iso_en $end
$var reg 1 a dsp_power_gate_n $end
$var reg 1 ^ dsp_restore $end
$var reg 1 \ dsp_save $end
$var reg 2 ,# dsp_st [1:0] $end
$var reg 1 -# dsp_stagger_done $end
$var reg 8 .# dsp_transition_count [7:0] $end
$var reg 8 /# dsp_wake_start [7:0] $end
$var reg 8 0# dsp_wakeup_latency [7:0] $end
$var reg 1 ) inrush_safe $end
$var reg 1 ' mem_active $end
$var reg 8 1# mem_cnt [7:0] $end
$var reg 1 V mem_iso_en $end
$var reg 1 T mem_power_gate_n $end
$var reg 1 S mem_restore $end
$var reg 1 Q mem_save $end
$var reg 2 2# mem_st [1:0] $end
$var reg 8 3# mem_transition_count [7:0] $end
$var reg 8 4# mem_wakeup_latency [7:0] $end
$upscope $end
$upscope $end
$scope task check_metric $end
$var reg 32 5# expected [31:0] $end
$var reg 32 6# measured [31:0] $end
$var reg 128 7# name [127:0] $end
$var reg 1 8# pass $end
$upscope $end
$upscope $end
$enddefinitions $end
$comment Show the parameter values. $end
$dumpall
b1 *#
b11 )#
b10 (#
b0 '#
b11111 v"
b11110 s"
b11101 p"
b11100 m"
b11011 j"
b11010 g"
b11001 d"
b11000 a"
b10111 ^"
b10110 ["
b10101 X"
b10100 U"
b10011 R"
b10010 O"
b10001 L"
b10000 I"
b1111 F"
b1110 C"
b1101 @"
b1100 ="
b1011 :"
b1010 7"
b1001 4"
b1000 1"
b111 ."
b110 +"
b101 ("
b100 %"
b11 ""
b10 }
b1 z
b0 w
$end
#0
$dumpvars
x8#
bx 7#
bx 6#
bx 5#
b0 4#
b0 3#
b0 2#
b0 1#
b0 0#
bx /#
b0 .#
0-#
b0 ,#
b0 +#
b0 &#
b0 %#
b0 $#
bx ##
b0 "#
b0 !#
b0 ~"
0}"
b0 |"
b0 {"
0z"
bx y"
xx"
0w"
xu"
0t"
xr"
0q"
xo"
0n"
xl"
0k"
xi"
0h"
xf"
0e"
xc"
0b"
x`"
0_"
x]"
0\"
xZ"
0Y"
xW"
0V"
xT"
0S"
xQ"
0P"
xN"
0M"
xK"
0J"
xH"
0G"
xE"
0D"
xB"
0A"
x?"
0>"
x<"
0;"
x9"
08"
x6"
05"
x3"
02"
x0"
0/"
x-"
0,"
x*"
0)"
x'"
0&"
x$"
0#"
x!"
0~
x|
0{
xy
0x
bx v
b0 u
b0 t
b0 s
bx r
b0 q
b0 p
b0 o
b0 n
0m
b0 l
b0 k
b0 j
0i
b0 h
0g
b0 f
b0 e
1d
b0 c
0b
0a
b0 `
0_
0^
bx ]
0\
b0 [
b0 Z
b0 Y
bx X
xW
1V
b0 U
0T
0S
bx R
0Q
b0 P
b0 O
b0 N
b0 M
b0 L
b0 K
bx J
xI
xH
r0 G
r0 F
b0 E
b0 D
b0 C
r0 B
r0 A
b100001 @
b100001 ?
r0 >
b100010 =
b100010 <
r0 ;
r0 :
b0 9
18
07
06
05
b0 4
b0 3
02
01
00
0/
0.
bx -
b0 ,
b0 +
b0 *
0)
b0 (
0'
b0 &
bx %
b0 $
b0 #
b0 "
0!
$end
#5000
b100100 -
b100100 ]
b100100 r
b1000 %
b1000 R
b1000 ##
12
#10000
02
#15000
12
#20000
02
#25000
12
#30000
02
08
#35000
12
#40000
02
#45000
12
#50000
02
#55000
12
#60000
02
#65000
12
#70000
02
16
r70 ;
b101 E
b0 5#
b0 6#
b1101101011001010110110101011111011100110111010001100001011101000110010100111101010011110100011001000110 7#
18#
#75000
0H
b111 E
b0 5#
b0 6#
b1100101011011100011110100110001001000000110010001110101011100100110100101101110011001110010000001110111011000010110101101100101 7#
b0 /#
b1 ,
b1 [
b1 %#
b1 ,#
12
#80000
02
#85000
b1 +#
12
#90000
02
#95000
b10 +#
12
#100000
02
#105000
b11 +#
12
#110000
02
#115000
b100 +#
12
#120000
02
#125000
1a
b101 +#
12
#130000
02
#135000
b110 +#
12
#140000
02
#145000
b111 +#
12
#150000
02
#155000
b1000 +#
12
#160000
02
#165000
1^
b1001 +#
12
#170000
02
#175000
b1010 +#
0^
1.
12
#180000
02
#185000
b1011 +#
12
#190000
02
#195000
b1100 +#
12
#200000
02
#205000
11
b1010 E
b1100 5#
b1100 6#
b1100001011010110110010101011111011011000110000101110100011001010110111001100011011110010011110100110001001100100110001101111001 7#
r135 G
r205 :
b10 ,
b10 [
b10 %#
b10 ,#
1-#
b1 +
b1 Z
b1 .#
b1100 *
b1100 Y
b1100 0#
1/
0d
b1101 +#
12
#210000
02
#215000
12
#220000
02
#225000
1)
b1 $
b1 P
b1 &#
b1 2#
12
17
b1 C
0I
b1101 E
b1 5#
b1 6#
b111010001110010011000010110111001110011011010010111010001101001011011110110111001110011001111100011110100110001 7#
#230000
02
#235000
b1 1#
12
#240000
02
#245000
b10 1#
12
#250000
02
#255000
b11 1#
12
#260000
02
#265000
b100 1#
12
#270000
02
#275000
xz"
1T
b101 1#
12
#280000
02
#285000
b110 1#
12
#290000
02
#295000
b111 1#
12
#300000
02
#305000
b1000 1#
12
#310000
02
#315000
1S
b1001 1#
12
#320000
02
#325000
b1010 1#
0S
12
#330000
02
#335000
b1011 1#
12
#340000
02
#345000
b1100 1#
12
#350000
02
#355000
b1110 E
b1100110011001010011110100110001001000000010100001110011011101000110000101100111011001110110010101110010011001010110010000101001 7#
bx &
bx U
bx {"
b10 $
b10 P
b10 &#
b10 2#
b1 #
b1 O
b1 3#
b1100 "
b1100 N
b1100 4#
1'
0V
b1101 1#
12
#360000
02
#365000
1g
b101 4
b101 L
b101 f
b1100 3
b1100 K
b1100 e
15
12
#370000
02
#375000
1i
b1 k
b111100 j
12
#380000
02
#385000
b10 k
b1111000 j
12
#390000
02
#395000
b11 k
b10110100 j
12
#400000
02
#405000
b100 k
b11110000 j
12
#410000
02
#415000
b101 k
b100101100 j
12
#420000
02
#425000
b110 k
b101101000 j
12
#430000
02
#435000
b111 k
b110100100 j
12
#440000
02
#445000
1)"
1,"
1/"
12"
1!
1b
b111100000 (
b111100000 M
b111100000 c
b111100000 t
b111100000 u
0i
1_
b111100000 `
b111100000 h
b111100000 n
b111100000 s
b0 k
b0 j
0g
05
12
#450000
02
#455000
0!
0b
0_
12
#460000
02
#465000
12
#470000
02
#475000
12
#480000
02
#485000
12
#490000
02
#495000
12
#500000
02
#505000
12
#510000
02
#515000
12
#520000
02
#525000
12
#530000
02
#535000
12
#540000
02
#545000
0)"
0,"
0/"
02"
b0 (
b0 M
b0 c
b0 t
b0 u
b0 +#
b11 ,
b11 [
b11 %#
b11 ,#
1d
12
06
b10011 E
b11 5#
b11 6#
b11001000111001101110000010111110111001101110100011000010111010001100101001111010101001101001100010001010100010101010000 7#
#550000
02
#555000
b1 +#
12
#560000
02
#565000
b10 +#
12
#570000
02
#575000
1\
b11 +#
12
#580000
02
#585000
b111100000 l
b111100000 q
b100 +#
0\
12
#590000
02
#595000
b101 +#
12
#600000
02
#605000
b110 +#
12
#610000
02
#615000
0/
0a
b111 +#
12
#620000
02
#625000
b1000 +#
12
#630000
02
#635000
b1001 +#
12
#640000
02
#645000
b1010 +#
12
#650000
02
#655000
16
b10 +
b10 Z
b10 .#
b0 ,
b0 [
b0 %#
b0 ,#
b1011 +#
12
#660000
02
#665000
b0 +#
b1 ,
b1 [
b1 %#
b1 ,#
0-#
12
#670000
02
#675000
b1 +#
12
#680000
02
#685000
b10 +#
12
#690000
02
#695000
b11 +#
12
#700000
02
#705000
b100 +#
12
#710000
02
#715000
1a
b101 +#
12
#720000
02
#725000
b110 +#
12
#730000
02
#735000
b111 +#
12
#740000
02
#745000
b1000 +#
12
#750000
02
#755000
1^
b1001 +#
12
#760000
02
#765000
b1010 +#
0^
12
#770000
02
#775000
b1011 +#
12
#780000
02
#785000
b1100 +#
12
#790000
02
#795000
1)"
1,"
1/"
12"
b1 9
b10101 E
b1 5#
b1 6#
b1100101010111110111010001110010011000010110111001110011011010010111010001101001011011110110111001110011001111100011110100110001 7#
b111100000 (
b111100000 M
b111100000 c
b111100000 t
b111100000 u
b10 ,
b10 [
b10 %#
b10 ,#
1-#
b11 +
b11 Z
b11 .#
1/
0d
b1101 +#
12
#800000
02
#805000
12
#810000
02
#815000
12
#820000
02
#825000
12
#830000
02
#835000
12
#840000
02
#845000
12
b11000 E
b10 5#
b11 6#
b1110000010111110111010001110010011000010110111001110011011010010111010001101001011011110110111001110011001111100011110100110010 7#
r0.5976 F
r75.90361445783132 >
r1.2 B
r4.98 A
